…
-   You can make the sheet public, so other people can use it, but
    changing the sharing settings.

Connecting to your survey answers in R
--------------------------------------

I used the `googlesheets` package to read my survey answers from the
(public) spreadsheet. You will need to authenticate yourself first:

    library(googlesheets)
    gs_ls()

    ## # A tibble: 24 x 10
    ##    sheet_title  author perm  version updated             sheet_key ws_feed
    ##    <chr>        <chr>  <chr> <chr>   <dttm>              <chr>     <chr>  
    ##  1 Dataviz qui~ chris~ rw    new     2018-07-05 10:39:47 10i3v3NI https:~
    ##  2 Science-pol~ "    ~ rw    new     2018-07-05 06:04:45 1aP8fYu1 https:~
    ##  3 Dataviz qui~ chris~ rw    new     2018-07-04 10:11:18 156deWbu https:~
    ##  4 "         S~ chris~ rw    new     2018-06-29 23:26:03 1yiBlbGB https:~
    ##  5 "    Untitl~ chris~ rw    new     2018-06-23 07:06:59 16aeSpQe https:~
    ##  6 "      Used~ chris~ rw    new     2018-03-27 23:49:58 15FLPXNj https:~
    ##  7 Connectivit~ meg.i~ rw    new     2015-10-13 02:17:29 13B7eLQP https:~
    ##  8 "  SEL Inte~ "    ~ r     new     2014-11-04 10:00:03 1ewHgpn6 https:~
    ##  9 "  MSCB wed~ chris~ rw    new     2014-04-28 07:55:02 1a3GmpZT https:~
    ## 10 quantmareco~ chris~ rw    new     2014-01-29 05:33:22 1SKWMa_k https:~
    ## # ... with 14 more rows, and 3 more variables: alternate <chr>,
    ## #   self <chr>, alt_key <chr>
…
