Data wrangling visualisation and spatial analysis: R Workshop
…
Loading data

Now let’s look at that first spreadsheet Prof Calanoid sent us. We don’t know the data well, and Prof Calanoid hasn’t told us much about it (or sent us any meta-data on what it all means), so we will want to do some thorough checks and visuals before we run any analyses.

This mirrors situations that all of us (Dave, Ant, Bill and Chris) of us have often come across. We are given data by collaborators, so we need to check and do some visuals on it before we do the analysis, to make sure we understand it well and avoid errors.

It is common to see people hired to do an analysis of a ‘complete’ data-set, but it ends up taking them the entire contract just to sort out the data, which weren’t really complete after all. R can help speed up this process, so the analysis (what you’re ultimately paid to do) gets done.

We will load in the data using a package from the tidyverse called readr. readr is handy because it does extra checks on data consistency over and above what the base R functions do. Data frames imported by readr also print in summary form by default. Let’s see how:

library(readr)
dat_input <- read_csv("data-for-course/copepods_raw.csv")
dat_input

# A tibble: 5,313 x 11
   silk_id segment_no latitude longitude sample_time_utc project route
     <int>      <int>    <dbl>     <dbl> <chr>           <chr>   <chr>
 1       1          1    -28.3      154. 26/6/09 22:08   AusCPR  BRSY
 2       1          5    -28.7      154. 26/6/09 23:12   AusCPR  BRSY
 3       1          9    -29.0      154. 27/6/09 0:17    AusCPR  BRSY
 4       1         13    -29.3      154. 27/6/09 1:22    AusCPR  BRSY
 5       1         17    -29.7      154. 27/6/09 2:26    AusCPR  BRSY
 6       1         18    -29.8      154. 27/6/09 2:43    AusCPR  BRSY
 7       1         26    -30.4      153. 27/6/09 4:52    AusCPR  BRSY
 8       1         30    -30.7      153. 27/6/09 5:57    AusCPR  BRSY
 9       1         33    -31.0      153. 27/6/09 6:45    AusCPR  BRSY
10       1         37    -31.3      153. 27/6/09 7:50    AusCPR  BRSY
# ... with 5,303 more rows, and 4 more variables: vessel <chr>,
#   meanlong <dbl>, region <chr>, richness_raw <int>
…
[1] 5313

Look at datg to convince yourself that nothing has changed. But note that if you type datg into the console it will print out Groups: route [25] now, indicating the data is grouped by 25 routes.

What we want to do is put group_by together with a summarize:

datg <- group_by(dat_std, route)
dats <- summarize(datg,
                  mean_rich = mean(richness),
                  sd_rich = sd(richness))
dats

# A tibble: 25 x 3
   route mean_rich sd_rich
   <chr>     <dbl>   <dbl>
 1 ADFR       3.82    4.05
 2 ANHO       1.95    1.81
 3 AUHO       7.86    4.89
 4 BRER       8.73    8.68
 5 BRFI       3.93    3.52
 6 BRGL      13.7     6.99
 7 BRNC       8.63    7.07
 8 BRSY      11.6     8.22
 9 BUNE       4.60    2.79
10 FRBO      16.1     6.39
# ... with 15 more rows
…
The function gather turns the table of abundances in dat_abund into a column of abundances. How it does this reshaping is a bit like origami, so can be hard to conceptualise. But here we go.

There will be two new columns replacing the table of abundances: one called segment_no that has the column names (segment numbers), and another column called abundance_raw that has abundances in it.

We’ve specified -silk_id which means silk ID will be kept outside the refolding, so it will remain as a column (and be replicated for all the new rows).

Finally, na.rm = TRUE removes the empty cells that had no abundances. There were empty cells because not every silk ID had every segment number.

Now let’s check out how the gathered data frame looks:

dat_abund

# A tibble: 5,313 x 3
   silk_id segment_no abundance_raw
 *   <int> <chr>              <dbl>
 1       1 1                   2.00
 2       2 1                   2.00
 3       3 1                   2.00
 4       4 1                   0.
 5       5 1                   0.
 6       6 1                   6.00
 7       7 1                  11.3
 8       8 1                  12.0
 9       9 1                  34.0
10      12 1                  52.0
# ... with 5,303 more rows
…
dat_abund$segment_no[1:10]

 [1] "1" "1" "1" "1" "1" "1" "1" "1" "1" "1"

class(dat_abund$segment_no)

[1] "character"

Notice the quotes around the numbers? So gather has turned the numbers into character types. We need to convert them back so inner_join works. That is easy as:

dat_abund$segment_no <- as.numeric(dat_abund$segment_no)
dat_all <- inner_join(dat, dat_abund)
dat_all

# A tibble: 5,313 x 12
   silk_id segment_no latitude longitude sample_time_utc project route
     <int>      <dbl>    <dbl>     <dbl> <chr>           <chr>   <chr>
 1       1         1.    -28.3      154. 26/6/09 22:08   AusCPR  BRSY
 2       1         5.    -28.7      154. 26/6/09 23:12   AusCPR  BRSY
 3       1         9.    -29.0      154. 27/6/09 0:17    AusCPR  BRSY
 4       1        13.    -29.3      154. 27/6/09 1:22    AusCPR  BRSY
 5       1        17.    -29.7      154. 27/6/09 2:26    AusCPR  BRSY
 6       1        18.    -29.8      154. 27/6/09 2:43    AusCPR  BRSY
 7       1        26.    -30.4      153. 27/6/09 4:52    AusCPR  BRSY
 8       1        30.    -30.7      153. 27/6/09 5:57    AusCPR  BRSY
 9       1        33.    -31.0      153. 27/6/09 6:45    AusCPR  BRSY
10       1        37.    -31.3      153. 27/6/09 7:50    AusCPR  BRSY
# ... with 5,303 more rows, and 5 more variables: vessel <chr>,
#   meanlong <dbl>, region <chr>, richness_raw <dbl>, abundance_raw <dbl>
…
